{
  "ru": {
    "ru/general.yml": "#*",
    "ru/stats.yml": "#isMaster #isLobby #Duels #Hub",
    "ru/queue.yml": "#Core",
    "ru/party.yml": "#Core #isLobby #Hub",
    "ru/reports.yml": "#Core #Bukkit",
    "ru/bedwars.yml": "#BW",
    "ru/skywars.yml": "#SW #isLobby #Hub",
    "ru/words.yml": "#*",
    "ru/duels.yml": "#Core #Duels",
    "ru/game.yml": "#isMaster",
    "ru/legacy_mc.yml": "#1.8.8 #1.12.2",
    "ru/cosmetics.yml": "#isLobby #Hub",
    "ru/lobby.yml": "#isLobby #Duels",
    "ru/new_mc.yml": "#1.16.4",
    "ru/eagleeye.yml": "#Duels #isMaster #Core",
    "ru/rules.yml": "#Core",
    "ru/joinmessages.yml": "#Bukkit #Core",
    "ru/automessages.yml": "#Core",
    "ru/buildffa.yml": "#bffa",
    "ru/hub_event.yml": "#Hub",
    "ru/grief.yml": "#Grief",
    "ru/dropper.yml": "#Dropper"
  },
  
  "en": {
    "en/legacy_mc.yml": "#1.8.8 #1.12.2",
    "en/new_mc.yml": "#1.16.4"
  }
}
